{
   "kubecost_admin":{
      "allocationFilters":[
         {
            "namespace":"*",
            "cluster":"*"
         }
      ]
   },
   "kubecost_users":{
      "allocationFilters":[
         {
            "namespace":"",
            "cluster":"*"
         }
      ]
   },
   "kubecost_team1":{
      "allocationFilters":[
         {
            "namespace":"kube-*",
            "cluster":"jesse-aks2"
         }
      ]
   },
   "kubecost_dev":{
      "allocationFilters":[
         {
            "namespace":"kubecost*",
            "cluster":"*"
         }
      ]
   },
   "kubecost_nodes-us-east":{
      "allocationFilters":[
         {
            "node":"aks-nodepool1*"
         }
      ]
   },
   "kubecost_controller_kind-deployments":{
      "allocationFilters":[
         {
            "controller kind":"deployment"
         }
      ]
   },
   "kubecost_controller-replicaset":{
      "allocationFilters":[
         {
            "replicaset":"coredns*"
         }
      ]
   },
   "kubecost_service_kube-dns":{
      "allocationFilters":[
         {
            "service":"kube-dns*"
         }
      ]
   },
   "kubecost_label-nginx":{
      "allocationFilters":[
         {
            "pod":"nginx*"
         }
      ]
   },
   "kubecost_cluster-aks1":{
      "allocationFilters":[
         {
            "cluster":"aks1"
         }
      ]
   }
 }